Division,WeightClassKg,Place,Name,Team,BodyweightKg,Best3SquatKg,Best3BenchKg,Best3DeadliftKg,TotalKg,Equipment,Event,Sex
Girls,44.23,1,Jessi Choate,Winnie East Chambers,43.82,104.33,52.16,102.06,258.55,Single-ply,SBD,F
Girls,44.23,2,Maria Alvarez,Winnie East Chambers,44.18,81.65,43.09,106.59,231.33,Single-ply,SBD,F
Girls,44.23,3,Kamryn Roman,Edna,43.64,88.45,45.36,90.72,224.53,Single-ply,SBD,F
Girls,44.23,4,Claudia Ayala,Ganado,43.54,74.84,40.82,102.06,217.72,Single-ply,SBD,F
Girls,44.23,5,Savanna Putnam,Anahuac,43.09,68.04,36.29,81.65,185.97,Single-ply,SBD,F
Girls,44.23,6,Dominique Hill #1,Winnie East Chambers,40.64,58.97,31.75,79.38,170.1,Single-ply,SBD,F
Girls,44.23,7,Whitney Jennings,Kountze,38.56,65.77,34.02,68.04,167.83,Single-ply,SBD,F
Girls,44.23,8,Danielle Puentes,Louise,42.37,63.5,29.48,72.57,165.56,Single-ply,SBD,F
Girls,44.23,9,Elizabeth Luce,Corrigan-Camden,40.64,56.7,22.68,68.04,147.42,Single-ply,SBD,F
Girls,44.23,DQ,DeRanda Brown,Kountze,44,,,,,Single-ply,SBD,F
Girls,47.85,1,Kamryn Johnson,Edna,45.18,86.18,36.29,104.33,226.8,Single-ply,SBD,F
Girls,47.85,2,Kelsey Lopez,Van Vleck,46.81,81.65,36.29,95.25,213.19,Single-ply,SBD,F
Girls,47.85,3,Ana Ortiz,Palacios,46.08,72.57,43.09,95.25,210.92,Single-ply,SBD,F
Girls,47.85,4,Bayleigh Thedford,Colmesneil,47.81,79.38,31.75,92.99,204.12,Single-ply,SBD,F
Girls,47.85,5,Dorian Maloy,Woodville,45.45,74.84,36.29,88.45,199.58,Single-ply,SBD,F
Girls,47.85,6,Bailey Martin,Kountze,47.81,52.16,29.48,72.57,154.22,Single-ply,SBD,F
Girls,47.85,7,Leslie Staner,Anahuac,44.45,54.43,29.48,68.04,151.95,Single-ply,SBD,F
Girls,47.85,DQ,Raven Woods,Edna,46.18,,,,,Single-ply,SBD,F
Girls,47.85,DQ,Vanessa Guerrero,Corrigan-Camden,47.63,,,,,Single-ply,SBD,F
Girls,51.94,1,Sissy Martinez,Palacios,49.99,104.33,56.7,102.06,263.08,Single-ply,SBD,F
Girls,51.94,2,Yasmin Chavez,Winnie East Chambers,49.71,108.86,49.9,95.25,254.01,Single-ply,SBD,F
Girls,51.94,3,Courtney Sackett,Vanderbilt Industrial,51.8,88.45,43.09,111.13,242.67,Single-ply,SBD,F
Girls,51.94,4,Callie Ramirez,Boling,49.99,92.99,47.63,99.79,240.4,Single-ply,SBD,F
Girls,51.94,5,Raelyhn Swan,Hitchcock,51.44,95.25,45.36,97.52,238.14,Single-ply,SBD,F
Girls,51.94,6,Lissett Cuellar,Winnie East Chambers,49.44,90.72,43.09,86.18,219.99,Single-ply,SBD,F
Girls,51.94,7,Destiny Roth,Hardin,50.08,83.91,36.29,99.79,219.99,Single-ply,SBD,F
Girls,51.94,8,Latashia Lyons,Anahuac,49.44,74.84,38.56,90.72,204.12,Single-ply,SBD,F
Girls,51.94,DQ,Zoe Johnson,Edna,51.62,,,,,Single-ply,SBD,F
Girls,51.94,DQ,Corey Wilkes,Van Vleck,51.35,,,,,Single-ply,SBD,F
Girls,56.02,1,Zoe Valdez,Ganado,55.16,115.67,56.7,122.47,294.84,Single-ply,SBD,F
Girls,56.02,2,Nellie Perry,Palacios,55.61,113.4,61.23,120.2,294.84,Single-ply,SBD,F
Girls,56.02,3,Hannah Daniel,Winnie East Chambers,55.97,111.13,52.16,117.93,281.23,Single-ply,SBD,F
Girls,56.02,4,Kasi Bethke,Vanderbilt Industrial,53.89,108.86,49.9,106.59,265.35,Single-ply,SBD,F
Girls,56.02,5,Alexis Alfaro #1,Ganado,55.16,102.06,47.63,106.59,256.28,Single-ply,SBD,F
Girls,56.02,6,Docelin Chavez,Winnie East Chambers,55.7,99.79,45.36,106.59,251.74,Single-ply,SBD,F
Girls,56.02,7,Katherine Lefler,Vanderbilt Industrial,55.7,97.52,45.36,104.33,247.21,Single-ply,SBD,F
Girls,56.02,8,Mallory Michalec,Vanderbilt Industrial,54.88,92.99,40.82,95.25,229.06,Single-ply,SBD,F
Girls,56.02,9,Casey Tousha,Kountze,54.16,81.65,38.56,102.06,222.26,Single-ply,SBD,F
Girls,56.02,DQ,Annabelle Hanka,Boling,55.7,,,,,Single-ply,SBD,F
Girls,60.1,1,Savanah Hunter,Palacios,60.06,138.35,81.65,136.08,356.07,Single-ply,SBD,F
Girls,60.1,2,Dolly Ortiz,Edna,58.88,108.86,68.04,142.88,319.78,Single-ply,SBD,F
Girls,60.1,3,Naomi Simmons,Boling,59.78,95.25,40.82,138.35,274.42,Single-ply,SBD,F
Girls,60.1,4,Alix Luera,Ganado,57.88,97.52,47.63,117.93,263.08,Single-ply,SBD,F
Girls,60.1,5,Victoria Jordan,Saratoga West Hardin,58.06,102.06,47.63,102.06,251.74,Single-ply,SBD,F
Girls,60.1,6,Madisen Smith,Kountze,59.69,88.45,43.09,115.67,247.21,Single-ply,SBD,F
Girls,60.1,7,Tristin Hensley,Vanderbilt Industrial,58.69,88.45,49.9,99.79,238.14,Single-ply,SBD,F
Girls,60.1,8,Diana Hurtado,Palacios,57.97,74.84,36.29,102.06,213.19,Single-ply,SBD,F
Girls,60.1,9,Lacee Ramirez,Palacios,60.06,70.31,36.29,97.52,204.12,Single-ply,SBD,F
Girls,60.1,10,Savanna Poole,Kirbyville,59.69,65.77,29.48,74.84,170.1,Single-ply,SBD,F
Girls,67.36,1,Haley Wood,Vanderbilt Industrial,65.77,127.01,56.7,133.81,317.51,Single-ply,SBD,F
Girls,67.36,2,Karina Ramon,Palacios,66.04,127.01,61.23,127.01,315.25,Single-ply,SBD,F
Girls,67.36,3,Jyeneisha Hamilton,Boling,67.13,138.35,47.63,122.47,308.44,Single-ply,SBD,F
Girls,67.36,4,Eboni Ogden,Edna,61.78,115.67,49.9,140.61,306.17,Single-ply,SBD,F
Girls,67.36,5,Haley Branum,Vanderbilt Industrial,65.32,129.27,52.16,115.67,297.1,Single-ply,SBD,F
Girls,67.36,6,Lauren Buffington,Kountze,64.68,113.4,52.16,129.27,294.84,Single-ply,SBD,F
Girls,67.36,7,Makayla Hobbs,Boling,65.5,108.86,56.7,127.01,292.57,Single-ply,SBD,F
Girls,67.36,8,Cami Hill,Boling,63.41,106.59,61.23,122.47,290.3,Single-ply,SBD,F
Girls,67.36,9,Kaitlyn Bennett,Winnie East Chambers,67.13,111.13,56.7,111.13,278.96,Single-ply,SBD,F
Girls,67.36,10,Michelle Gutierrez,Winnie East Chambers,65.5,104.33,54.43,111.13,269.89,Single-ply,SBD,F
Girls,67.36,11,Kelli Cochrel,Saratoga West Hardin,60.87,102.06,43.09,113.4,258.55,Single-ply,SBD,F
Girls,67.36,12,Merrick Graham,Colmesneil,63.05,83.91,45.36,111.13,240.4,Single-ply,SBD,F
Girls,75.07,1,LesLee Harmon,Winnie East Chambers,72.76,188.24,72.57,156.49,417.3,Single-ply,SBD,F
Girls,75.07,2,Elida Sarmiento,Corrigan-Camden,70.76,113.4,54.43,138.35,306.17,Single-ply,SBD,F
Girls,75.07,3,Desiree Hart,Edna,71.03,111.13,58.97,115.67,285.76,Single-ply,SBD,F
Girls,75.07,4,Macey Watson,Van Vleck,71.67,115.67,63.5,95.25,274.42,Single-ply,SBD,F
Girls,75.07,5,Zsanee Russell,Anahuac,68.76,113.4,54.43,102.06,269.89,Single-ply,SBD,F
Girls,75.07,6,Tage Helm,Winnie East Chambers,68.95,106.59,54.43,104.33,265.35,Single-ply,SBD,F
Girls,75.07,7,Bailee Huffsmith,Anahuac,71.21,102.06,52.16,102.06,256.28,Single-ply,SBD,F
Girls,75.07,8,Rainey Fowler,Kirbyville,74.84,104.33,43.09,106.59,254.01,Single-ply,SBD,F
Girls,75.07,9,Taylor Frenzel,Edna,70.22,88.45,45.36,108.86,242.67,Single-ply,SBD,F
Girls,75.07,10,Angel Dornak,Vanderbilt Industrial,70.67,79.38,45.36,102.06,226.8,Single-ply,SBD,F
Girls,75.07,11,Cindy Campbell,High Island,73.66,86.18,38.56,92.99,217.72,Single-ply,SBD,F
Girls,75.07,DQ,Becca McGarity,Kountze,74.84,,,,,Single-ply,SBD,F
Girls,82.33,1,Bernice Cabrera,Anahuac,76.75,124.74,61.23,145.15,331.12,Single-ply,SBD,F
Girls,82.33,2,Brenttany Birdow,Hitchcock,76.29,120.2,45.36,142.88,308.44,Single-ply,SBD,F
Girls,82.33,3,Magen Allen,Colmesneil,78.29,104.33,61.23,136.08,301.64,Single-ply,SBD,F
Girls,82.33,4,Jordan Bell #2,Warren,77.2,122.47,56.7,115.67,294.84,Single-ply,SBD,F
Girls,82.33,5,Sarah Petitt,High Island,81.47,115.67,45.36,122.47,283.5,Single-ply,SBD,F
Girls,82.33,6,Claire Winkenwerder,Boling,82.01,106.59,54.43,122.47,283.5,Single-ply,SBD,F
Girls,82.33,7,Cerenity Venglar,Vanderbilt Industrial,80.65,102.06,52.16,120.2,274.42,Single-ply,SBD,F
Girls,82.33,8,Kiarra Williams,Hitchcock,78.47,115.67,49.9,102.06,267.62,Single-ply,SBD,F
Girls,82.33,9,Cali West,Kountze,76.38,97.52,45.36,117.93,260.82,Single-ply,SBD,F
Girls,82.33,10,Kaitlyn Leader,Hardin,79.11,97.52,49.9,111.13,258.55,Single-ply,SBD,F
Girls,82.33,DQ,Jade Willis,Kirbyville,78.11,104.33,52.16,,,Single-ply,SBD,F
Girls,90.04,1,Enriqueta Cruz,Palacios,88.63,149.69,74.84,145.15,369.68,Single-ply,SBD,F
Girls,90.04,2,Laura Garcia,Edna,89.9,138.35,65.77,124.74,328.85,Single-ply,SBD,F
Girls,90.04,3,Deanna Pinkston,Louise,85.37,122.47,63.5,117.93,303.91,Single-ply,SBD,F
Girls,90.04,4,Mirna Lopez,Palacios,87.63,115.67,52.16,115.67,283.5,Single-ply,SBD,F
Girls,90.04,5,Antoniette Burrell,Woodville,88,115.67,58.97,106.59,281.23,Single-ply,SBD,F
Girls,90.04,6,Maryssa Alvarado,Vanderbilt Industrial,88.9,127.01,45.36,88.45,260.82,Single-ply,SBD,F
Girls,90.04,7,Lizbeth Martinez,Van Vleck,83.19,106.59,47.63,102.06,256.28,Single-ply,SBD,F
Girls,90.04,DQ,Alyssa Garcia,Hitchcock,88.27,,,,,Single-ply,SBD,F
Girls,90.04,DQ,Kealani Moore,Corrigan-Camden,88.27,,,,,Single-ply,SBD,F
Girls,90.04,DQ,Taylor Mirelez,Ganado,89.81,,,,,Single-ply,SBD,F
Girls,100.02,1,Ana Gonzalez,Palacios,98.25,136.08,72.57,136.08,344.73,Single-ply,SBD,F
Girls,100.02,2,Lucita Rodriguez,Winnie East Chambers,99.06,127.01,86.18,131.54,344.73,Single-ply,SBD,F
Girls,100.02,3,Sara Demicelli,Ganado,91.26,120.2,68.04,138.35,326.59,Single-ply,SBD,F
Girls,100.02,4,Ashley Trammell,Danbury,99.43,102.06,63.5,131.54,297.1,Single-ply,SBD,F
Girls,100.02,5,Kim Knighten,Colmesneil,93.35,92.99,56.7,136.08,285.76,Single-ply,SBD,F
Girls,100.02,6,Kelly Murphy,High Island,98.79,97.52,45.36,113.4,256.28,Single-ply,SBD,F
Girls,100.02,7,Krista Harris,Colmesneil,93.89,79.38,45.36,104.33,229.06,Single-ply,SBD,F
Girls,100.02,DQ,Bria Kirkpatrick,Warren,97.43,,,,,Single-ply,SBD,F
Girls,100.02+,1,Shermeka Thompson,Edna,102.6,151.95,70.31,158.76,381.02,Single-ply,SBD,F
Girls,100.02+,2,Mikala James,Edna,109.41,165.56,70.31,142.88,378.75,Single-ply,SBD,F
Girls,100.02+,3,Brittany Hudson,Corrigan-Camden,122.47,127.01,70.31,131.54,328.85,Single-ply,SBD,F
Girls,100.02+,4,Kali Davie,Hardin,101.24,113.4,47.63,136.08,297.1,Single-ply,SBD,F
Girls,100.02+,5,Asia Snow,High Island,125.74,113.4,56.7,120.2,290.3,Single-ply,SBD,F
Girls,100.02+,DQ,Arlonda Clinkscales,Corrigan-Camden,117.84,,,,,Single-ply,SBD,F
