Place,Name,Sex,BirthDate,Equipment,Division,BodyweightKg,WeightClassKg,Squat1Kg,Squat2Kg,Squat3Kg,Squat4Kg,Best3SquatKg,Bench1Kg,Bench2Kg,Bench3Kg,Bench4Kg,Best3BenchKg,Deadlift1Kg,Deadlift2Kg,Deadlift3Kg,Deadlift4Kg,Best3DeadliftKg,TotalKg,Event,Team
DQ,Brisa Bernales,F,2001-08-29,Raw,Jr,48.42,52,50,52.5,55,,55,-32.5,-32.5,-32.5,,,75,77.5,82.5,,82.5,,SBD,
1,Elizabeth Muñoz,F,1999-12-15,Raw,Jr,55.26,56,112.5,120,125,,125,-57.5,62.5,-65,,62.5,135,147.5,-155,,147.5,335,SBD,
2,Agustina Candame,F,2003-03-29,Raw,Jr,52.3,56,85,-95,95,,95,47.5,-52.5,-52.5,,47.5,110,120,,,120,262.5,SBD,
1,Lilen Areco,F,1999-06-28,Raw,Jr,59.7,60,110,117.5,120,122.5,120,-55,57.5,60,,60,130,140,147.5,150,147.5,327.5,SBD,
1,Magaly Urzainqui,F,2002-05-14,Raw,Jr,62.02,67.5,85,92.5,-100,,92.5,42.5,-47.5,-47.5,,42.5,95,105,-110,,105,240,SBD,
1,Sonia Sarapura,F,1978-09-22,Raw,M40-44,51.14,52,85,95,105,,105,55,60,65,,65,140,147.5,150,,150,320,SBD,
1,Silvia Zapata,F,1981-03-24,Raw,M40-44,62.86,67.5,-125,-125,125,,125,50,60,-65,,60,130,140,145,,145,330,SBD,
2,Romina Mendiola,F,1981-02-27,Raw,M40-44,64.68,67.5,-100,100,110,,110,40,42.5,45,,45,130,140,150,-155,150,305,SBD,
3,Baileron María Emilia Gil,F,1982-04-19,Raw,M40-44,64.78,67.5,82.5,-90,90,,90,62.5,65,-67.5,,65,137.5,145,-152.5,,145,300,SBD,
4,Cecilia Quilaqueo,F,1981-05-08,Raw,M40-44,61.68,67.5,67.5,70,75,,75,40,-45,45,,45,80,90,100,,100,220,SBD,
1,Daniela Areco,F,1980-10-22,Raw,M40-44,74.02,75,120,130,-135,,130,57.5,65,-70,,65,125,135,-140,,135,330,SBD,
1,Lilian Fernandez,F,1974-11-29,Raw,M45-49,74.48,75,100,110,112.5,,112.5,50,-57.5,-57.5,,50,115,125,-130,,125,287.5,SBD,
2,María José García,F,1978-05-17,Raw,M45-49,71.92,75,55,65,70,,70,40,45,50,,50,115,125,-130,,125,245,SBD,
1,Ana Maria Cardenas,F,1971-07-20,Raw,M50-54,57.68,60,75,80,90,,90,50,55,60,,60,100,115,120,,120,270,SBD,
1,Sonia Sarapura,F,1978-09-22,Raw,Open,51.14,52,85,95,105,,105,55,60,65,,65,140,147.5,150,,150,320,SBD,
2,Roció de Las Nieves Hernández,F,1983-07-04,Raw,Open,51.82,52,85,-90,90,,90,47.5,-50,52.5,,52.5,115,120,-125,,120,262.5,SBD,
1,Ayelén Noguera,F,1991-12-17,Raw,Open,54.96,56,140,150,,,150,70,-75,75,,75,140,150,-163,,150,375,SBD,
2,Noemi Anaquin,F,1992-08-19,Raw,Open,54.78,56,120,-127.5,,,120,75,-80,-80,,75,140,-155,-155,,140,335,SBD,
3,Rocio Tapia,F,1998-04-22,Raw,Open,55.32,56,120,130,-135,,130,60,65,70,,70,125,135,-145,,135,335,SBD,
4,María Libré,F,1990-09-01,Raw,Open,55.02,56,85,90,95,,95,42.5,47.5,50,,50,105,112.5,117.5,,117.5,262.5,SBD,
5,Anahi Fuentes,F,1993-03-14,Raw,Open,53.16,56,75,80,90,,90,45,-50,-50,,45,110,-115,-115,,110,245,SBD,
DQ,Tamara Magario,F,1984-11-19,Raw,Open,55.82,56,110,117.5,-125,,117.5,65,70,-75,,70,-130,-130,-130,,,,SBD,
1,Magali Santi,F,1987-08-14,Raw,Open,57.18,60,117.5,125,132.5,,132.5,62.5,-67.5,-67.5,,62.5,145,155,160,,160,355,SBD,
2,Luciana Rocio Mendez,F,1999-02-03,Raw,Open,59.42,60,137.5,-142.5,-142.5,,137.5,55,60,-62.5,,60,-135,135,140,,140,337.5,SBD,
3,Vanesa Barbero,F,1989-12-18,Raw,Open,59.96,60,115,117.5,-120,,117.5,60,-62.5,62.5,,62.5,-120,125,130,,130,310,SBD,
4,Mayra Alvarez,F,1996-05-06,Raw,Open,58.44,60,-110,115,-120,,115,50,57.5,-60,,57.5,115,125,130,,130,302.5,SBD,
1,Solana Chasampi,F,1998-02-28,Raw,Open,61.54,67.5,130,140,-147.5,,140,77.5,-80,,,77.5,-195.5,195.5,-202.5,,195.5,413,SBD,
2,Belén Opazo,F,1991-05-01,Raw,Open,64.38,67.5,130,-140,-140,,130,82.5,87.5,90,-92.5,90,150,160,-165,,160,380,SBD,
3,Vanessa Gomez,F,1989-08-05,Raw,Open,67.08,67.5,-115,115,-125,,115,57.5,62.5,65,,65,135,145,-152.5,,145,325,SBD,
4,Gisela Piantadosi,F,1989-03-12,Raw,Open,60.8,67.5,110,117.5,-122.5,,117.5,55,60,-62.5,,60,135,145,-152.5,,145,322.5,SBD,
5,Milena Rojo,F,1996-09-02,Raw,Open,65.18,67.5,-100,100,115,,115,50,-55,-55,,50,132.5,142.5,152.5,,152.5,317.5,SBD,
6,Daiana Santiago,F,1990-10-02,Raw,Open,60.48,67.5,-110,110,112.5,,112.5,65,70,72.5,,72.5,120,130,-135,,130,315,SBD,
7,Florencia Navarro,F,1993-11-25,Raw,Open,66.28,67.5,105,112.5,-120,,112.5,55,-62.5,-62.5,,55,-120,130,140,,140,307.5,SBD,
8,Brenda Oberman,F,1996-06-14,Raw,Open,65.38,67.5,100,107.5,-115,,107.5,50,55,-60,,55,100,110,120,,120,282.5,SBD,
1,Romina Orue,F,1991-11-22,Raw,Open,73.18,75,120,130,-135,,130,60,62.5,-65,,62.5,150,-162.5,162.5,,162.5,355,SBD,
2,Barbara Ocampo,F,1992-07-16,Raw,Open,72.06,75,132.5,-143,-143,,132.5,55,60,-65,,60,150,-160,160,,160,352.5,SBD,
3,Emilia Reyes,F,1995-09-24,Raw,Open,71.92,75,100,110,-120,,110,50,55,-57.5,,55,130,142.5,150,,150,315,SBD,
4,Pamela Santiago,F,1985-02-19,Raw,Open,68.64,75,95,102.5,110,,110,45,50,-52.5,,50,100,110,-120,,110,270,SBD,
5,Belén Medrano,F,1997-12-10,Raw,Open,69.82,75,-100,100,-110,,100,37.5,40,-42.5,,40,105,-115,115,,115,255,SBD,
6,Anabel Cañiupan,F,1997-06-17,Raw,Open,68.37,75,80,-90,92.5,,92.5,35,40,-42.5,,40,90,100,-105,,100,232.5,SBD,
1,Taiel Gonzalez,F,1999-02-16,Raw,Open,82,82.5,90,-100,100,,100,55,60,62.5,,62.5,120,130,-140,,130,292.5,SBD,
1,Gimena Marilef,F,1995-09-05,Raw,Open,95.22,100,-125,130,-140,,130,50,55,-60,,55,140,150,-155,,150,335,SBD,
1,Florencia Bello,F,2005-04-14,Raw,Teen,56.68,60,95,105,-110,,105,55,-60,-60,,55,100,110,117.5,120,117.5,277.5,SBD,
DQ,María José Chamorro,F,2006-11-07,Raw,Teen,58.64,60,72.5,77.5,-80,,77.5,30,35,-40,,35,-90,-90,-90,,,,SBD,Nueva Fuerza
1,Leila Iturrizaga,F,2005-08-29,Raw,Teen,64.86,67.5,85,95,105,-110,105,52.5,57.5,-60,,57.5,110,120,122.5,,122.5,285,SBD,
2,Ludmila Graciett,F,2003-12-22,Raw,Teen,66.34,67.5,95,105,-115,,105,30,40,42.5,,42.5,92.5,105,115,,115,262.5,SBD,
1,Nahiara Ardén,F,2007-07-11,Raw,Teen,73.54,75,100,-105,110,113,110,65,67.5,70,-73,70,100,110,117.5,,117.5,297.5,SBD,
1,Paula Quintana,F,2002-08-30,Wraps,Jr,59.94,60,-85,90,100,,100,30,40,-42.5,,40,95,100,110,,110,250,SBD,
1,Silvina Ruiz,F,2000-01-06,Wraps,Jr,60.8,67.5,-190,200,-205,,200,-117.5,120,122.5,125,122.5,175,185,-195,,185,507.5,SBD,
2,María Fernández,F,2002-08-11,Wraps,Jr,62.2,67.5,105,110,117.5,,117.5,50,-55,-55,,50,110,117.5,122.5,,122.5,290,SBD,
1,Luciana Spinelli,F,2001-09-14,Wraps,Jr,73.44,75,130,-145,-145,,130,60,-67.5,-67.5,,60,135,142.5,150,-155,150,340,SBD,
DQ,Marina Choque,F,1980-11-04,Wraps,M40-44,46.7,48,100,120,-125,,120,-55,-55,-55,,,130,140,-150,,140,,SBD,
1,Eugenia Gonzalez,F,1982-07-28,Wraps,M40-44,58.92,60,-105,105,-115,,105,-40,-45,45,,45,120,130,140,-150,140,290,SBD,
2,Ana María Del Carmen Maine,F,1982-07-26,Wraps,M40-44,59.52,60,-60,60,70,,70,45,-50,-50,,45,100,105,110,,110,225,SBD,
1,Verónica García,F,1976-08-31,Wraps,M45-49,54.24,56,92.5,105,112.5,,112.5,60,65,70,73,70,92.5,105,115,,115,297.5,SBD,
1,Sandra Llanquimil,F,1975-05-09,Raw,M45-49,57.44,60,90,95,97.5,100,97.5,42.5,47.5,-50,,47.5,115,120,-125,,120,265,SBD,
1,Verónica Durán,F,1977-05-25,Wraps,M45-49,74.12,75,155,162.5,170,-175,170,67.5,72.5,78,80,78,165,175,180,-185,180,428,SBD,Hijos y Nietos Bertotto
1,María Cisterna,F,1977-02-20,Wraps,M45-49,98.22,100,-195,-200,200,,200,75,80,-85,,80,200,-210,-212.5,,200,480,SBD,
1,Ines Zeballos,F,1970-03-06,Wraps,M50-54,57.36,60,100,115,125,,125,50,60,62.5,,62.5,110,130,140,,140,327.5,SBD,
1,María Cecilia Gilabert,F,1969-12-01,Wraps,M50-54,68.62,75,120,130,-140,,130,50,-60,-60,,50,130,140,145,,145,325,SBD,
1,María Ramos,F,1990-04-20,Wraps,Open,48,48,165,180,190,,190,80,87.5,-95,,87.5,170,-180,-180,,170,447.5,SBD,
2,Laila Benítez,F,1996-10-20,Wraps,Open,47.76,48,85,95,100,,100,45,50,-55,,50,100,110,120,,120,270,SBD,
3,Natalia Rojas,F,1996-06-30,Wraps,Open,45.94,48,85,90,95,,95,40,42.5,,,42.5,110,120,-125,,120,257.5,SBD,
1,Carina Villanueva,F,1982-06-16,Wraps,Open,51.92,52,-125,130,-140,,130,55,60,62.5,,62.5,130,140,-150,,140,332.5,SBD,
2,Ana Gonzalez,F,1997-11-13,Wraps,Open,50.6,52,110,120,125,,125,52.5,57.5,-60,,57.5,120,130,-140,,130,312.5,SBD,
1,Eliana Ocampos,F,1986-10-13,Wraps,Open,55.94,56,172.5,182.5,-190.5,,182.5,80,85,-87.5,,85,167.5,175,180.5,,180.5,448,SBD,Hijos y Nietos Bertotto
2,Antonella Vázquez,F,1977-10-20,Wraps,Open,54.66,56,147.5,-160,-170,,147.5,-45,55,57.5,,57.5,130,145,-155,,145,350,SBD,
3,Sofía Rodríguez,F,1996-12-31,Wraps,Open,54,56,120,130,-140,,130,60,65,67.5,,67.5,110,120,-125,,120,317.5,SBD,
4,Julieta Rendano,F,1994-02-25,Wraps,Open,55.04,56,105,-110,-110,,105,52.5,57.5,-60,,57.5,130,137.5,-145,,137.5,300,SBD,
5,Susana Sanches,F,1991-03-26,Wraps,Open,54.1,56,-100,107.5,112.5,,112.5,40,-45,-45,,40,100,105,110,,110,262.5,SBD,
DQ,Solange Viñas,F,1993-02-22,Wraps,Open,54.88,56,-125,-125,-125,,,60,67.5,70,,70,130,135,140,,140,,SBD,
1,Malvina Chauqui,F,1995-06-10,Wraps,Open,57.14,60,130,140,147.5,,147.5,55,60,-62.5,,60,-145,145,155,,155,362.5,SBD,
2,Nancy Pinchera,F,1995-01-23,Wraps,Open,59.5,60,115,-120,130,,130,50,55,-57.5,,55,140,147.5,150,,150,335,SBD,
3,Belén Baeza,F,1995-05-24,Wraps,Open,60,60,135,147.5,-152.5,,147.5,55,60,-65,,60,120,-130,-130,,120,327.5,SBD,
1,Vanesa Ayala,F,1994-02-20,Wraps,Open,64.2,67.5,160,172.5,180,,180,65,70,75,,75,155,165,-170,,165,420,SBD,
2,Paula García,F,1992-08-27,Wraps,Open,64.54,67.5,140,-150,150,,150,65,70,-75,,70,145,155,165,,165,385,SBD,
3,Daniela Ledesma,F,1993-10-16,Wraps,Open,64.8,67.5,107.5,115,-117.5,,115,42.5,47.5,50,,50,-110,117.5,125,,125,290,SBD,
1,Paula Firpo,F,1996-04-11,Wraps,Open,73.76,75,180,190,-200,,190,70,-75,80,,80,180,190,-200,,190,460,SBD,
2,Verónica Durán,F,1977-05-25,Wraps,Open,74.12,75,155,162.5,170,-175,170,67.5,72.5,78,80,78,165,175,180,-185,180,428,SBD,Hijos y Nietos Bertotto
3,Amanda Becerra,F,1985-06-30,Wraps,Open,69.38,75,135,140,-147.5,,140,75,77.5,-82.5,,77.5,137.5,-145,147.5,,147.5,365,SBD,
4,Luciana Spinelli,F,2001-09-14,Wraps,Open,73.44,75,130,-145,-145,,130,60,-67.5,-67.5,,60,135,142.5,150,-155,150,340,SBD,
5,Guadalupe Pereyra,F,1995-12-04,Wraps,Open,70.4,75,115,125,-132.5,,125,57.5,62.5,-67.5,,62.5,117.5,127.5,-130,,127.5,315,SBD,
6,Sabrina D'Angelo,F,1988-05-09,Wraps,Open,70.52,75,125,132.5,137.5,,137.5,47.5,50,-52.5,,50,115,120,-127.5,,120,307.5,SBD,
1,Silvana Santi,F,1989-10-22,Wraps,Open,79.64,82.5,110,125,-140,,125,50,-60,-60,,50,95,-100,100,,100,275,SBD,
DQ,Aixa Tebaldi,F,1993-09-28,Wraps,Open,77.38,82.5,225,235,-245,,235,93.5,100,,,100,-220,-220,,,,,SBD,
1,Sofía Zurita,F,2006-10-16,Wraps,Teen,49.76,52,90,-97.5,-97.5,,90,37.5,40,-42.5,,40,90,100,107.5,-112.5,107.5,237.5,SBD,
1,Lurdes Gimenez,F,2004-04-19,Wraps,Teen,53.58,56,85,95,-102.5,,95,40,45,-47.5,,45,110,115,120,,120,260,SBD,
2,Sol Rosales,F,2006-01-15,Wraps,Teen,55.52,56,77.5,85,-87.5,,85,-40,40,-45,,40,107.5,112.5,-115.5,,112.5,237.5,SBD,Hijos y Nietos Bertotto
1,Victoria Alonso,F,2003-12-10,Wraps,Teen,57.6,60,95,105,110,,110,40,42.5,45,,45,90,105,107.5,,107.5,262.5,SBD,
1,Micaela Acosta,F,2006-04-03,Wraps,Teen,61.56,67.5,115,120,125,127.5,125,75,-80,80,-85,80,130,135,-140,,135,340,SBD,
1,Laila Benítez,F,1996-10-20,Raw,Open,48,48,,,,,,40,45,50,,50,100,110,115,,115,165,BD,
1,Heinz Ana Cuello,F,1990-06-12,Raw,Open,58.5,60,,,,,,62.5,,,,62.5,90,100,-110,,100,162.5,BD,
1,Paula Mardones,F,1977-09-24,Raw,M45-49,65.2,67.5,,,,,,70,75,80,,80,,,,,,80,B,
1,Heinz Ana Cuello,F,1990-06-12,Raw,Open,58.5,60,,,,,,55,60,62.5,,62.5,,,,,,62.5,B,
1,Amanda Becerra,F,1985-06-30,Raw,Open,69,75,,,,,,72.5,-77.5,77.5,-85.5,77.5,,,,,,77.5,B,
1,Nahiara Ardén,F,2007-07-11,Raw,Teen,73.5,75,,,,,,65,67.5,-70,,67.5,,,,,,67.5,B,
1,Sonia Sarapura,F,1978-09-22,Raw,M40-44,50.7,52,,,,,,,,,,,130,140.5,145,,145,145,D,
1,María Cisterna,F,1977-02-20,Raw,M45-49,97.3,100,,,,,,,,,,,200,210,-220,,210,210,D,
1,Sonia Sarapura,F,1978-09-22,Raw,Open,50.7,52,,,,,,,,,,,130,140.5,145,,145,145,D,
1,Malvina Chauqui,F,1995-06-10,Raw,Open,56.6,60,,,,,,,,,,,120,140,150,,150,150,D,
2,Carmen Olbermann,F,1996-07-20,Raw,Open,57,60,,,,,,,,,,,120,-130,130,,130,130,D,
1,Tamara Comas,F,1995-12-24,Raw,Open,65.2,67.5,,,,,,,,,,,120,125,130,,130,130,D,
DQ,Amir Aguilera,M,2014-06-23,Raw,Invitado,48.2,52,25,27.5,30,,30,-20,-20,-20,,,25,40,50,,50,,SBD,
1,Bautista Haedo,M,2008-09-30,Raw,Invitado,57.2,60,85,90,100,,100,50,60,65,,65,110,120,130,,130,295,SBD,
1,Tomás Muñoz,M,2002-01-13,Raw,Jr,61.9,67.5,100,115,130,,130,70,75,80,,80,160,170,180,,180,390,SBD,Nueva Fuerza
2,Cristian Juancho,M,2002-04-15,Raw,Jr,67.08,67.5,120,-130,-130,,120,80,-90,90,,90,130,150,160,,160,370,SBD,
1,Franco Argañaras,M,2002-02-22,Raw,Jr,72.8,75,182.5,192.5,-200,,192.5,125,132.5,-140,,132.5,245,260,-270,,260,585,SBD,
2,Agustín Moreno,M,1999-10-12,Raw,Jr,73.92,75,170,180,190,200.5,190,110,120,-122.5,,120,200,220,230,,230,540,SBD,
3,Luca Giovanni De,M,1999-08-13,Raw,Jr,72.8,75,180,187.5,192.5,,192.5,100,110,-115,,110,-210,212.5,220,,220,522.5,SBD,
4,Matías Vasquez,M,2001-02-07,Raw,Jr,74.1,75,155,167.5,-182.5,,167.5,110,120,-125,,120,210,222.5,-237.5,,222.5,510,SBD,
5,Matías Roade,M,2003-05-15,Raw,Jr,73.52,75,155,162.5,170,,170,97.5,102.5,107.5,,107.5,205,215,222.5,,222.5,500,SBD,
6,Nicolás Molina,M,2001-08-04,Raw,Jr,71.82,75,-110,120,-130,,120,80,-90,-90,,80,140,150,160,,160,360,SBD,
1,Joaquín Fiori,M,2000-04-17,Raw,Jr,82.22,82.5,205,215.5,-222.5,,215.5,105,112.5,115,,115,200,217.5,-228,,217.5,548,SBD,
1,Gonzalo Suárez,M,2002-01-30,Raw,Jr,90,90,230,240,250,,250,-130,135,142.5,,142.5,230,242.5,250,,250,642.5,SBD,
2,Santiago Fernández,M,2002-07-03,Raw,Jr,88.5,90,205,220,227.5,,227.5,127.5,-135,-135,,127.5,-250,257.5,-270,,257.5,612.5,SBD,
3,Gerónimo Nuñez,M,2000-04-26,Raw,Jr,87.46,90,175,187.5,192.5,,192.5,117.5,-125,125,,125,195,210,-220,,210,527.5,SBD,
4,Tiago Brizuela,M,2000-03-23,Raw,Jr,88.2,90,165,175,-182.5,,175,-100,100,-105,,100,210,225,235,,235,510,SBD,
1,Ignacio Benitez,M,2003-03-21,Raw,Jr,96.24,100,230,240.5,,,240.5,145,155,-160.5,,155,275,285,300,-307.5,300,695.5,SBD,
2,Carlos Mariñanco,M,2000-05-13,Raw,Jr,97.94,100,170,195,-210,,195,145,157.5,-162.5,,157.5,200,220,-250,,220,572.5,SBD,
3,Martiniano Fumagalli,M,2000-04-28,Raw,Jr,99.8,100,180,-195,-200,,180,105,115,-122.5,,115,205,-215,-220,,205,500,SBD,
1,Diego Sanagua,M,2000-02-22,Raw,Jr,107.34,110,232.5,-247.5,-247.5,,232.5,-135,135,-142.5,,135,-290,-295,295,,295,662.5,SBD,
2,Santiago Negrete,M,2000-08-31,Raw,Jr,102.5,110,165,172.5,-175,,172.5,110,115,117.5,,117.5,215,225,-230,,225,515,SBD,
3,José María Guerrero,M,2001-08-07,Raw,Jr,107.16,110,150,165,-175,,165,-95,95,100,,100,210,225,232.5,,232.5,497.5,SBD,
1,Gonzalo Bucari,M,2002-09-11,Raw,Jr,122.44,125,210,-220,220,,220,120,130,-140,,130,210,-217.5,222.5,,222.5,572.5,SBD,
NS,Emmanuel Alvarez,M,1981-07-12,Raw,M40-44,,,,,,,,,,,,,,,,,,,SBD,
1,Gabriel Delgado,M,1981-09-19,Raw,M40-44,78.26,82.5,170,-190,-190,,170,145,152.5,-160,,152.5,230,240,-250,,240,562.5,SBD,
2,Carlos Moyano,M,1979-04-17,Raw,M40-44,80.28,82.5,160,172.5,180,,180,117.5,125,127.5,,127.5,185,195,205,,205,512.5,SBD,
1,Pablo Paillalef,M,1980-04-22,Raw,M40-44,84.92,90,165,175,-185,,175,-120,120,-125,,120,180,190,200,,200,495,SBD,
1,Andrés Godoy,M,1979-06-02,Raw,M40-44,119.44,125,255,-265,275,,275,137.5,145,150,,150,270,285,-300,,285,710,SBD,
2,Diego Book,M,1980-01-01,Raw,M40-44,122.82,125,175,190,205,,205,105,115,120,,120,230,250,260,,260,585,SBD,
1,Matías Landivar,M,1978-03-08,Raw,M45-49,79,82.5,150,160,-170,,160,95,105,110,,110,175,187.5,200,,200,470,SBD,
1,Ricardo Sanchez,M,1976-11-03,Raw,M45-49,85.74,90,180,190,-200,,190,117.5,122.5,-130,,122.5,212.5,-225.5,,,212.5,525,SBD,
1,Juan Parga,M,1969-06-24,Raw,M50-54,87.5,90,191,200,-210,,200,135,142.5,-150,,142.5,215,225,,,225,567.5,SBD,
NS,Robert Feldman,M,1955-09-08,Raw,M65-69,73.77,75,,,,,,,,,,,,,,,,,SBD,
NS,Emmanuel Alvarez,M,1981-07-12,Raw,Open,,,,,,,,,,,,,,,,,,,SBD,
NS,Hernan Garcia,M,1998-08-03,Raw,Open,,,,,,,,,,,,,,,,,,,SBD,
1,Jairo Abalos,M,1995-07-20,Raw,Open,67,67.5,160,170,180,-190.5,180,-105,110,,,110,230,-240,-242.5,,230,520,SBD,
2,Federico Ortiz,M,1991-05-15,Raw,Open,66.12,67.5,170,180,-190,,180,95,105,-110,,105,195,205,217.5,,217.5,502.5,SBD,
3,Matías Alasa,M,1997-08-08,Raw,Open,65.46,67.5,-175,-182.5,182.5,-192.5,182.5,-97.5,100,-102.5,,100,195,205,-217.5,,205,487.5,SBD,
4,Manuel Beltrán,M,1990-01-03,Raw,Open,66.7,67.5,150,-160,162.5,,162.5,105,115,125,,125,170,185,195,,195,482.5,SBD,
5,Gerardo Quevedo,M,1985-09-20,Raw,Open,66.42,67.5,110,125,-135,,125,70,77.5,82.5,,82.5,145,160,170,,170,377.5,SBD,
DQ,Saúl Sepúlveda,M,1998-02-02,Raw,Open,64.7,67.5,-130,-130,-130,,,65,72.5,77.5,,77.5,140,150,-155,,150,,SBD,
NS,Braian Maldonado,M,1992-09-16,Raw,Open,65.8,67.5,,,,,,,,,,,,,,,,,SBD,
1,Luis Arias,M,1986-11-12,Raw,Open,74.1,75,192.5,202.5,-212.5,,202.5,125,135,145,,145,217.5,222.5,232.5,,232.5,580,SBD,
2,Facundo Orrico,M,1997-11-30,Raw,Open,74.82,75,187.5,200,210,,210,115,122.5,-130,,122.5,225,237.5,-252.5,,237.5,570,SBD,
3,Jorge Nader,M,1989-06-17,Raw,Open,72.52,75,185,195,207.5,,207.5,105,112.5,115,,115,220,232.5,-242.5,,232.5,555,SBD,
4,Matías Premici,M,1993-12-13,Raw,Open,73.94,75,180,195,-205,,195,115,-122.5,122.5,,122.5,225,-235,-240,,225,542.5,SBD,
5,Gabriel Hermosilla,M,1992-01-07,Raw,Open,73.7,75,170,180,-190,,180,95,100,-102.5,,100,245,256,-277.5,,256,536,SBD,
6,Pablo Abouchain,M,1997-11-21,Raw,Open,74.72,75,165,180,-185,,180,90,100,105,,105,235,-250,-260,,235,520,SBD,
7,David Leiva,M,1995-08-17,Raw,Open,74.24,75,150,160,-170,,160,95,100,-105,,100,210,220,-230,,220,480,SBD,
8,Milton Nuñez,M,1988-02-02,Raw,Open,74.4,75,150,160,-170,,160,90,-95,100,,100,190,-200,-200,,190,450,SBD,
9,Nicolás Molina,M,2001-08-04,Raw,Open,71.82,75,-110,120,-130,,120,80,-90,-90,,80,140,150,160,,160,360,SBD,
NS,Julián Morales,M,1989-08-17,Raw,Open,75,75,,,,,,,,,,,,,,,,,SBD,
1,Pablo Spagnuolo,M,1995-10-25,Raw,Open,78.86,82.5,175,185,195,,195,152.5,-162.5,162.5,,162.5,210,230,247.5,,247.5,605,SBD,
2,Fabián Rivero,M,1990-07-29,Raw,Open,81.2,82.5,175,185,190,,190,145,150,-152.5,,150,255,265,-270,,265,605,SBD,
3,Emanuel Murias,M,1994-06-03,Raw,Open,80.24,82.5,142.5,155,160,,160,92.5,102.5,-107.5,,102.5,192.5,210,-217.5,,210,472.5,SBD,
4,Manuel Silvosa,M,1997-11-13,Raw,Open,78.46,82.5,140,155,-165,,155,100,-107.5,-107.5,,100,170,185,200,,200,455,SBD,
DQ,Diego Buchara,M,1992-07-13,Raw,Open,79.3,82.5,-160,,,,,,,,,,,,,,,,SBD,
DQ,Gonzalo Araoz,M,1991-09-14,Raw,Open,81.9,82.5,-165,-165,-165,,,105,110,-115,,110,190,200,-210,,200,,SBD,
1,Agustín Caracotche,M,1997-03-22,Raw,Open,84.7,90,250,260.5,265,,265,155,162.5,-167.5,,162.5,300,315,-322.5,,315,742.5,SBD,
2,Yefirson Arteaga,M,1989-06-25,Raw,Open,87.6,90,245,255,261,,261,157.5,-165,-165,,157.5,280,290,-295,,290,708.5,SBD,
3,Alessandro Cuccaro,M,1990-06-21,Raw,Open,88.62,90,250,-260.5,-265.5,,250,140,150,-157.5,,150,270,280,-290,,280,680,SBD,
4,Luciano Bracco,M,1994-12-11,Raw,Open,88.9,90,240,-247.5,-247.5,,240,137.5,140,-142.5,,140,257.5,267.5,272.5,,272.5,652.5,SBD,
5,Elias Pereyro,M,1992-06-30,Raw,Open,86.8,90,190,210,-215,,210,142.5,150,-152.5,,150,235,255,-265,,255,615,SBD,
6,Maximiliano Barrionuevo,M,1990-03-14,Raw,Open,86.72,90,200,210,-215,,210,115,120,-125,,120,225,240,-250,,240,570,SBD,
7,Rubén Sepulveda,M,1989-01-02,Raw,Open,86.66,90,160,170,-180,,170,100,-105,105,,105,200,210,220,,220,495,SBD,
8,Cristian Castellano,M,1984-12-01,Raw,Open,85.1,90,165,170,180,,180,95,-105,-105,,95,200,210,-220,,210,485,SBD,
1,Guido Gola,M,1996-05-11,Raw,Open,98,100,240,250,260,,260,180,192.5,-200,,192.5,290,-305.5,305.5,,305.5,758,SBD,
2,Sebastián Santos,M,1996-05-19,Raw,Open,94.46,100,225,240,250,,250,150,160,165,,165,265,280,292.5,,292.5,707.5,SBD,
3,José Egües,M,1985-07-27,Raw,Open,100,100,252.5,265,272.5,277.5,272.5,155,165,170,,170,-252.5,252.5,-267.5,,252.5,695,SBD,
4,José María Acevedo,M,1984-01-13,Raw,Open,97.88,100,220,230,-235,,230,165,175,-180,,175,272.5,285,-292.5,,285,690,SBD,
5,Federico Juliá,M,1994-05-16,Raw,Open,96.7,100,190,210,220,,220,110,120,-130,,120,-190,-220,230,,230,570,SBD,
6,Lautaro Ramos,M,1999-05-24,Raw,Open,98.78,100,190,200,205,,205,-110,110,117.5,,117.5,190,-207.5,207.5,,207.5,530,SBD,
7,Emiliano Orellana,M,1990-02-13,Raw,Open,95.54,100,-185,-195,195,,195,105,110,112.5,,112.5,-195,195,205,,205,512.5,SBD,
8,Martín Ávila,M,1987-01-28,Raw,Open,95.24,100,145,155,-165,,155,95,100,-102.5,,100,170,185,-200,,185,440,SBD,
1,Juan Santa Rosa,M,1986-09-30,Raw,Open,104.56,110,232.5,245,247.5,,247.5,185,190,-195.5,,190,262.5,265,282.5,-295.5,282.5,720,SBD,
2,Victor Kubyshka,M,1989-11-17,Raw,Open,104.56,110,227.5,237.5,242.5,,242.5,185,195,200,202.5,200,260,275,-280,,275,717.5,SBD,
3,Axel Román,M,1992-10-02,Raw,Open,107,110,245,255,265,,265,137.5,145,150,,150,265,282.5,295,-297.5,295,710,SBD,
4,Hector Varea,M,1983-08-01,Raw,Open,108.3,110,142.5,155,165,,165,100,107.5,-112.5,,107.5,-175,185,200,,200,472.5,SBD,
5,Mauro Ramos,M,1996-05-21,Raw,Open,107.62,110,125,130,135,,135,100,107.5,-115,,107.5,155,165,-180,,165,407.5,SBD,
1,Flavio Viotti,M,1995-11-02,Raw,Open,124.54,125,270,-285,285,,285,172.5,-180,-183,,172.5,305,325,335,,335,792.5,SBD,
2,Leonel Marin,M,1993-07-12,Raw,Open,122.66,125,190,200,210,,210,117.5,125,-130,,125,220,230,-240,,230,565,SBD,
3,Exequiel Canales,M,1987-12-17,Raw,Open,113.22,125,180,195,205,,205,105,110,115,,115,175,190,200,,200,520,SBD,
4,Brian Ceballos,M,1998-12-06,Raw,Open,116.28,125,160,180,-205,,180,90,97.5,102.5,,102.5,205,220,-240,,220,502.5,SBD,
1,Joaquín Llanes,M,2003-07-18,Raw,Teen,59.4,60,115,122.5,127.5,,127.5,60,67.5,72.5,,72.5,145,160,167.5,-170,167.5,367.5,SBD,
2,Lorenzo Blundo,M,2007-05-29,Raw,Teen,57.8,60,110,-120,125,,125,75,-85,-85,,75,150,160,-172.5,,160,360,SBD,Nueva Fuerza
3,Rocco Puerta,M,2005-11-10,Raw,Teen,59.4,60,100,-112.5,117.5,,117.5,52.5,60,67.5,,67.5,140,160,-167.5,,160,345,SBD,
1,Martín Sanchez,M,2004-09-09,Raw,Teen,66.4,67.5,140,-152.5,-152.5,,140,87.5,-95,95,,95,-190,202.5,210.5,,210.5,445.5,SBD,
2,Bautista Lamy,M,2003-10-30,Raw,Teen,66.72,67.5,125,142.5,-150,,142.5,-35,-85,85,,85,140,-162.5,170,,170,397.5,SBD,
3,Maximiliano Paz,M,2005-02-02,Raw,Teen,66.64,67.5,125,-137.5,-142.5,,125,85,92.5,100,,100,137.5,157.5,170,,170,395,SBD,
4,Maico Samaniego,M,2006-07-29,Raw,Teen,60.5,67.5,-135,140,-150,,140,-62.5,65,70,,70,170,180,-195,,180,390,SBD,
5,Matías Fraile,M,2004-05-13,Raw,Teen,62.14,67.5,90,95,105,,105,52.5,57.5,65,,65,135,145,160,,160,330,SBD,Nueva Fuerza
6,Pedro Lincopil,M,2006-11-15,Raw,Teen,65.88,67.5,125,-130,130,,130,70,75,-80,,75,60,,,,60,265,SBD,
1,Felipe Byrne,M,2006-03-20,Raw,Teen,72.78,75,165,177.5,186,,186,90,95,100,,100,-185,195,200,,200,486,SBD,
2,Joaquín Pantoja,M,2003-06-27,Raw,Teen,73.66,75,152.5,162.5,170,,170,-115,115,122.5,-128,122.5,192.5,-207.5,-207.5,,192.5,485,SBD,
3,Gerónimo Ferrara,M,2007-12-06,Raw,Teen,69.26,75,145,155,-160,,155,85,95,-100,,95,185,-195,-195,,185,435,SBD,
4,Josue Britos,M,2003-11-11,Raw,Teen,72.64,75,125,132.5,142.5,,142.5,80,87.5,-92.5,,87.5,155,170,-180,,170,400,SBD,
5,Martin Cacciabue,M,2006-12-26,Raw,Teen,74.5,75,95,105,-115,,105,55,65,70,,70,115,125,135,,135,310,SBD,
6,Luis Parga,M,2007-11-11,Raw,Teen,72.5,75,-85,85,90,,90,52.5,55,57.5,,57.5,95,100,102.5,,102.5,250,SBD,
1,Fabian Amorena,M,2003-11-21,Raw,Teen,84.3,90,170,180,-185,,180,85,-92.5,-92.5,,85,210,220,230,,230,495,SBD,Nueva Fuerza
1,Facundo Montiel,M,2004-08-09,Raw,Teen,133.26,140,225,235,-245,,235,105,110,-130,,110,265,280,285.5,-300,285.5,630.5,SBD,Nueva Fuerza
1,Benjamín Alem,M,2009-01-01,Wraps,Invitado,69.1,75,100,115,-130,,115,50,55,-60,,55,115,-120,122.5,,122.5,292.5,SBD,
1,Luca Alvarez,M,2000-09-17,Wraps,Jr,63.8,67.5,125,132.5,-140,,132.5,-70,70,72.5,,72.5,135,142.5,150,,150,355,SBD,
1,Tomás Otero,M,1999-08-10,Wraps,Jr,73.26,75,245,-257.5,257.5,,257.5,135,140,142.5,,142.5,100,180,232.5,,232.5,632.5,SBD,
1,Santiago Flores,M,2002-05-11,Wraps,Jr,87.5,90,210,-230,230,,230,115,125,135,,135,220,241,255,262.5,255,620,SBD,
2,Carlos Miranda,M,2003-01-28,Wraps,Jr,88.74,90,185,-195,-195,,185,115,120,125,,125,235,245,255.5,-263,255.5,565.5,SBD,
DQ,Gabriel Martinez,M,1999-10-13,Wraps,Jr,90,90,255,265,-272.5,,265,,,,,,,,,,,,SBD,
1,Lautaro Perez,M,2001-07-16,Wraps,Jr,116.6,125,185,195,-205,,195,112.5,-117.5,-117.5,,112.5,220,230,-240,,230,537.5,SBD,
1,Daniel Ramirez,M,1981-08-10,Wraps,M40-44,64.4,67.5,165,175,185,,185,120,128,-132.5,,128,210,-220,-220,,210,523,SBD,
2,Franco Ferreyra,M,1980-10-29,Wraps,M40-44,61.38,67.5,142.5,157.5,-170,,157.5,92.5,100,-105,,100,182.5,190,195,,195,452.5,SBD,
DQ,Roberto Poblete,M,1981-06-19,Wraps,M40-44,66.74,67.5,140,147.5,-155,,147.5,-72.5,-72.5,-72.5,,,137.5,147.5,160,,160,,SBD,
1,Marcos Toconas,M,1982-05-17,Wraps,M40-44,81.7,82.5,210,225,236,,236,130,140,150,,150,210,230,240,250,240,626,SBD,
2,Ramiro Mosquera,M,1979-01-26,Wraps,M40-44,82,82.5,-215,215,-235.5,,215,122.5,125,127.5,,127.5,200,215,-237.5,,215,557.5,SBD,
3,Jorge Galván,M,1980-01-21,Wraps,M40-44,80.5,82.5,180,-190,-190,,180,115,122.5,125,,125,210,220,230,,230,535,SBD,Bunker Family Team
1,Andrés Hugo,M,1979-12-12,Wraps,M40-44,109,110,300,315,-330,,315,170,-177.5,177.5,,177.5,280,300,315,,315,807.5,SBD,
1,Chen Chien-Hwa,M,1976-09-16,Wraps,M45-49,89.6,90,190,220,-225,,220,140,145,-150,,145,200,215,222.5,,222.5,587.5,SBD,
1,Joselino Pereira,M,1974-11-23,Wraps,M45-49,153.78,140+,-180,180,-200,,180,120,140,-145,,140,180,200,-215,,200,520,SBD,
1,Christian Martinez,M,1970-01-20,Wraps,M50-54,157.48,140+,250,280,-300,,280,-160,160,180,195.5,180,260,280,290.5,300,290.5,750.5,SBD,Bunker Family Team
DQ,Roberto Poblete,M,1981-06-19,Wraps,Open,66.74,67.5,140,147.5,-155,,147.5,-72.5,-72.5,-72.5,,,137.5,147.5,160,,160,,SBD,
1,Tomás Otero,M,1999-08-10,Wraps,Open,73.26,75,245,-257.5,257.5,,257.5,135,140,142.5,,142.5,100,180,232.5,,232.5,632.5,SBD,
2,Matías González,M,1995-12-20,Wraps,Open,72.3,75,230,-245,245,,245,130,-137.5,-137.5,,130,232.5,245,250,,250,625,SBD,
3,Pablo Gomez,M,1989-07-04,Wraps,Open,74.4,75,247.5,-260,262.5,,262.5,115,120,125,,125,220,227.5,237.5,,237.5,625,SBD,
4,Gustavo Peña,M,1992-07-15,Wraps,Open,74.32,75,-220,220,230,,230,127.5,132.5,-135,,132.5,220,230,235,,235,597.5,SBD,
5,Matías Saez,M,1991-05-22,Wraps,Open,73.26,75,-195,195,-205,,195,120,-125,-125,,120,235,250,-255,,250,565,SBD,Hijos y Nietos Bertotto
6,Guillermo Rossi,M,1991-09-20,Wraps,Open,74.34,75,185,195,200,,200,117.5,122.5,-127.5,,122.5,170,180,-190,,180,502.5,SBD,
1,Leandro Albornoz,M,1992-09-15,Wraps,Open,79.16,82.5,-295,-305,305,,305,145,152.5,-160,,152.5,277.5,-282.5,,,277.5,735,SBD,
2,Jonatan Chiappa,M,1992-03-12,Wraps,Open,82.22,82.5,-245,245,-255,,245,150,157.5,162.5,,162.5,245,260,265,-285.5,265,672.5,SBD,
3,Pablo Baggio,M,1991-03-05,Wraps,Open,81.94,82.5,235,250,-260,,250,157.5,-165,-165,,157.5,235,250,-260,,250,657.5,SBD,
4,Angelo Paillalef,M,1990-07-05,Wraps,Open,80,82.5,170,-180,-180,,170,110,120,-125,,120,-190,195,205,,205,495,SBD,
5,Federico Pettinato,M,1991-06-06,Wraps,Open,80.7,82.5,50,,,,50,95,102.5,-107.5,,102.5,75,,,,75,227.5,SBD,
1,Emanuel Rodriguez,M,1995-12-11,Wraps,Open,85.2,90,235,-245,-245,,235,135,140,145,,145,240,260,265,,265,645,SBD,
2,Martín Zerar,M,1999-03-27,Wraps,Open,85,90,215,222.5,230,,230,120,125,127.5,,127.5,250,262.5,-282.5,,262.5,620,SBD,
3,Martín Nion,M,1985-05-04,Wraps,Open,86.5,90,220,-230,230,,230,115,120,-130,,120,220,235,242.5,,242.5,592.5,SBD,
4,Lucas Reynoso,M,1998-07-06,Wraps,Open,86.6,90,195,210,220,,220,115,125,130,,130,-200,215,-225,,215,565,SBD,
DQ,Juan Jose Mellado,M,1995-10-14,Wraps,Open,87.46,90,-180,-180,-180,,,105,115,-122.5,,115,165,175,-180,,175,,SBD,
1,Federico Meijome,M,1998-06-25,Wraps,Open,99.2,100,375,385,-392.5,,385,197.5,202.5,-205,,202.5,-310,315,330,342.5,330,917.5,SBD,
2,Alejo Philipp,M,1994-12-18,Wraps,Open,97.38,100,-277.5,277.5,-290,,277.5,177.5,-182.5,-182.5,,177.5,270,280,290,,290,745,SBD,
3,Nicholls Alvarez,M,1990-06-11,Wraps,Open,99.4,100,230,-240,240,,240,130,-140,-140,,130,225,-235,-235,,225,595,SBD,
4,Leandro Pardo,M,1992-09-11,Wraps,Open,99.5,100,200,210,-220,,210,112.5,117.5,-120,,117.5,225,240,250,,250,577.5,SBD,
5,Rio Ezequiel Del,M,1987-11-21,Wraps,Open,93.5,100,200,-215,215,,215,105,112.5,117.5,,117.5,200,220,240,,240,572.5,SBD,
6,Nestor Lencinas,M,1989-03-22,Wraps,Open,90.38,100,175,-180,180,,180,110,120,-130,,120,215,-225,225,,225,525,SBD,
7,Mauricio Riquelme,M,1987-01-23,Wraps,Open,93.66,100,-175,-175,175,,175,100,115,-120,,115,200,220,-235,,220,510,SBD,
1,Andrés Hugo,M,1979-12-12,Wraps,Open,109,110,300,315,-330,,315,170,-177.5,177.5,,177.5,280,300,315,,315,807.5,SBD,
2,Fabrizio Fantozzi,M,1998-09-18,Wraps,Open,109.86,110,250,270,-275,,270,160,165,170,,170,295,310,322.5,-330.5,322.5,762.5,SBD,
3,Dante Carlino,M,1997-12-04,Wraps,Open,102.26,110,250,262.5,-272.5,,262.5,170,180,-190,,180,250,-265,-265,,250,692.5,SBD,
4,Daniel García,M,1989-03-02,Wraps,Open,101.4,110,240,-250,252.5,,252.5,140,150,155,,155,260,265,275,,275,682.5,SBD,Hijos y Nietos Bertotto
5,Cristian Artero,M,1993-03-16,Wraps,Open,100.56,110,230,240,250,,250,122.5,130,135,,135,-270,-280,280,,280,665,SBD,Bunker Family Team
6,Damián Sánchez,M,1987-01-18,Wraps,Open,109,110,230,240,255,,255,100,110,-120,,110,250,265,275,,275,640,SBD,Bunker Family Team
7,Mirko Carripilon,M,1995-07-31,Wraps,Open,108.5,110,220,240,-270,,240,-130,135,140,,140,220,235,250,,250,630,SBD,Hijos y Nietos Bertotto
DQ,Diego Rival,M,1985-12-30,Wraps,Open,109.66,110,220,240,-250,,240,120,-130,130,,130,-260,-265,-265,,,,SBD,Bunker Family Team
1,Facundo Presta,M,1993-07-07,Wraps,Open,123.08,125,305,-320,320,,320,200,210,-220,,210,340,362.5,370,-380,370,900,SBD,
1,Maximiliano Poblete,M,1988-05-11,Wraps,Open,136.62,140,285,300,310.5,,310.5,170,180,,,180,270,290,-300,,290,780.5,SBD,
DQ,Mariano Painefil,M,1991-12-23,Wraps,Open,131.26,140,-180,-180,-180,,,100,105,110,,110,175,-177.5,-177.5,,175,,SBD,
1,Nicolás Espinosa,M,1989-05-03,Wraps,Open,143.22,140+,265,285,300,,300,-130,130,-145,,130,230,-250,-250,,230,660,SBD,
NS,Natan Tolosa,M,2007-04-23,Wraps,Teen,,,,,,,,,,,,,,,,,,,SBD,
1,Tiziano Gonzalez,M,2004-09-15,Wraps,Teen,59.4,60,-110,115,120,,120,80,-90,90,,90,-180,190,-195,,190,400,SBD,
2,Angel Medrano,M,2007-04-26,Wraps,Teen,58.1,60,130,-140,-140,,130,80,-85,-85,,80,160,165,-170,,165,375,SBD,
1,Gabriel Maisares,M,2004-02-11,Wraps,Teen,66.24,67.5,120,130,140,,140,77.5,82.5,87.5,,87.5,160,170,-180,,170,397.5,SBD,Hijos y Nietos Bertotto
DQ,Kevin Kissner,M,2005-09-22,Wraps,Teen,68.1,75,120,125,130,,130,-80,-80,-82.5,,,160,165,170,,170,,SBD,
1,Ignacio Tagarelli,M,2004-10-10,Wraps,Teen,81.8,82.5,170,180,-190,,180,100,110,115,,115,215,230,-242.5,,230,525,SBD,
2,Daniel Gatica,M,2005-08-06,Wraps,Teen,81.9,82.5,195,205.5,-207.5,,205.5,105,110,112.5,,112.5,190,-200,-200,,190,508,SBD,Hijos y Nietos Bertotto
3,Axel Minor,M,2006-03-25,Wraps,Teen,82.24,82.5,-110,110,-115,,110,60,65,70,,70,140,160,-180,,160,340,SBD,
DQ,Joaquín Altamirano,M,2003-06-03,Wraps,Teen,77.26,82.5,-190,-190,-190,,,100,110,-115,,110,-190,190,-205,,190,,SBD,
1,Bruno Diaz,M,2005-06-26,Wraps,Teen,95.74,100,-200,200,-215,,200,90,100,107.5,,107.5,260,-270,270,,270,577.5,SBD,Bunker Family Team
1,Lautaro Gallo,M,2006-10-26,Wraps,Teen,109.5,110,160,-175,-175,,160,80,90,-100,,90,195,-205,205,-207.5,205,455,SBD,
2,Tomás Videla,M,2005-02-13,Wraps,Teen,104.64,110,170,-180,180,,180,80,-90,90,,90,170,180,-200,,180,450,SBD,
1,Emilio Mansilla,M,1984-01-22,Single-ply,Open,109.84,110,320,330,335,,335,187.5,-192.5,,,187.5,285,295,302.5,,302.5,825,SBD,
1,Damián Brankovic,M,1980-05-28,Raw,M40-44,87.6,90,,,,,,150,155,-160,,155,240,245,250,252.5,250,405,BD,
1,Nicolás Morales,M,1991-08-02,Raw,Open,74.4,75,,,,,,-110,-110,110,,110,200,205,-210,,205,315,BD,
1,Matías Pascual,M,2005-07-13,Raw,Teen,65.1,67.5,,,,,,75,85,90,,90,155,165,180,,180,270,BD,
1,Ezequiel Francou,M,2002-10-31,Raw,Jr,87.9,90,,,,,,140,145,-152.5,,145,,,,,,145,B,
1,Mauricio Gomez,M,1999-10-26,Raw,Jr,92.9,100,,,,,,172.5,177.5,180,182.5,180,,,,,,180,B,
1,Sergio Barriento,M,1978-09-03,Raw,M40-44,81.9,82.5,,,,,,142.5,-147.5,150,-153,150,,,,,,150,B,
1,Diego Carriqueo,M,1980-01-18,Raw,M40-44,89,90,,,,,,150,160,-165,,160,,,,,,160,B,
1,Cristian Gutiérrez,M,1979-04-03,Raw,M40-44,117.8,125,,,,,,195,-205,205,210,205,,,,,,205,B,
1,Marcelo Carrizo,M,1975-07-15,Raw,M45-49,107.5,110,,,,,,145,-160,-160,,145,,,,,,145,B,
1,Ezequiel Costa,M,1976-08-25,Raw,M45-49,118.9,125,,,,,,172.5,183,190,-195.5,190,,,,,,190,B,
1,Pablo Morón,M,1969-08-31,Raw,M50-54,78.6,82.5,,,,,,110,112.5,-115,,112.5,,,,,,112.5,B,
1,Rodrigo Sanchez,M,1970-11-13,Raw,M50-54,95.4,100,,,,,,160,170,-175,,170,,,,,,170,B,
1,Roberto Cavani,M,1965-09-05,Raw,M55-59,80.4,82.5,,,,,,-140,142.5,145,150,145,,,,,,145,B,
1,Sergio Morales,M,1962-05-01,Raw,M60-64,108.2,110,,,,,,-145,150,160,-165,160,,,,,,160,B,
NS,Matías Mansilla,M,1997-03-06,Raw,Open,,,,,,,,,,,,,,,,,,,B,
1,Nicolás Morales,M,1991-08-02,Raw,Open,74.4,75,,,,,,-110,-110,110,,110,,,,,,110,B,
1,Pablo Spagnuolo,M,1995-10-25,Raw,Open,79.4,82.5,,,,,,150,,,,150,,,,,,150,B,
2,Pablo Pagnutti,M,1992-02-05,Raw,Open,81.5,82.5,,,,,,125,135,137.5,,137.5,,,,,,137.5,B,
3,Angelo Paillalef,M,1990-07-05,Raw,Open,79.3,82.5,,,,,,110,120,-130,,120,,,,,,120,B,
1,Ricardo Jaramillo,M,1980-07-19,Raw,Open,88.7,90,,,,,,170,185,-190,,185,,,,,,185,B,
2,Erik Mateyka,M,1993-06-13,Raw,Open,85.5,90,,,,,,162.5,172.5,-177.5,,172.5,,,,,,172.5,B,
3,Maximiliano Kittler,M,1988-03-19,Raw,Open,88.4,90,,,,,,160,170,-180,,170,,,,,,170,B,
4,Ezequiel Francou,M,2002-10-31,Raw,Open,87.9,90,,,,,,140,145,-152.5,,145,,,,,,145,B,
1,Rodrigo Sanchez,M,1970-11-13,Raw,Open,95.4,100,,,,,,160,170,-175,,170,,,,,,170,B,
2,José Luis Martinez,M,1984-02-12,Raw,Open,94.4,100,,,,,,150,155,160,,160,,,,,,160,B,
1,Cristian Gutiérrez,M,1979-04-03,Raw,Open,117.8,125,,,,,,195,-205,205,210,205,,,,,,205,B,
2,Ezequiel Costa,M,1976-08-25,Raw,Open,118.9,125,,,,,,172.5,183,190,-195.5,190,,,,,,190,B,
1,Randy Schweiker,M,2004-10-13,Raw,Teen,67.9,75,,,,,,75,77.5,80,,80,,,,,,80,B,
1,Daniel Ramirez,M,1981-08-10,Raw,M40-44,63.6,67.5,,,,,,,,,,,215,-225,-225,,215,215,D,
1,Nicolás Quilodran,M,1972-11-05,Raw,M50-54,85.2,90,,,,,,,,,,,175,185,200,,200,200,D,
1,Nestor Ramirez,M,1972-11-14,Raw,M50-54,106.1,110,,,,,,,,,,,200,220,-240,,220,220,D,
NS,Brian Ceballos,M,1998-12-06,Raw,Open,,,,,,,,,,,,,,,,,,,D,
1,Ana Matías Santa,M,1997-05-02,Raw,Open,59.1,60,,,,,,,,,,,190,200,205,,205,205,D,
2,Luka Diaz,M,2005-08-10,Raw,Open,59,60,,,,,,,,,,,160,165,167.5,-172.5,167.5,167.5,D,
2,Belén Medrano,F,1997-12-10,Raw,Open,67.2,67.5,,,,,,,,,,,110,-120,-120,,110,110,D,
DQ,Franco Perez,M,1995-02-18,Raw,Open,88.3,90,,,,,,,,,,,-280,-280,-280,,,,D,
1,Damián Sánchez,M,1987-01-18,Raw,Open,106,110,,,,,,,,,,,250,260,265,,265,265,D,
1,Luka Diaz,M,2005-08-10,Raw,Teen,59,60,,,,,,,,,,,160,165,167.5,-172.5,167.5,167.5,D,
1,Pedro Lincopil,M,2006-11-15,Raw,Teen,65.5,67.5,,,,,,,,,,,160,165,170,,170,170,D,
1,Gerónimo Ferrara,M,2007-12-06,Raw,Teen,70.6,75,,,,,,,,,,,180,190,195,,195,195,D,
1,Alejandro Lamperti,M,1971-09-22,Single-ply,M50-54,87.9,90,,,,,,,,,,,225,233,237.5,240,237.5,237.5,D,
1,De Oca Flavio Montes,M,1985-10-06,Single-ply,Open,109.9,110,,,,,,,,,,,260,280,293,300,293,293,D,
